{
    "global": {
        "theme": "blue",
        "colorCode" : "#yourValue",
        "LimitOfPosts" : 5,
        "Colors" : {
            "MainColor"                      : "#311847", 
            "MainColor_Dark"                 : "#cb390e",
            "BackgroundColor"                : "#FFFFFF",
            "ProfileTabColor"                : "#CCCCCC",
            "validationFailColor"            : "#ECB19F",
            "IconColor"                      : "#A01A7D",
            "DisableColor"                   : "#bab9b9",
            "DiscountColor"                  : "#fd000c",
            "ItemIconColor_Dark"             : "#888888",
            "ItemIconColor"                  : "#DDDDDD",
            "SideMenuIconColor"              : "#a01a7d",
            "TextColor"                      : "#FFFFFF",
            "TabColor"                       : "#333333",
            "ReviewBackgroundColor"          : "#F1F8F7",
            "IconWhite"                      : "#FFFFFF",
            "IconRed"                        : "#fc0303",
            "CartColor"                      : "#b71c1c",
            "SliderIndexBGColor"             : "#DDDDDD",
            "keyboardToolbarBG"              : "#999",
            "facebookColor"                  : "#405d9a",
            "twitterColor"                   : "#0075ab",
            "transctionRowColor"             : "#A01A7D"
            },
        "Urls" : {
            "baseURL"                              : "http://mokets2.successcomeup.com/index.php/",
            "imagePathURL"                         : "http://mokets2.successcomeup.com/uploads/",
            "getAllShops"                          : "rest/shops/get",
            "getItemsByPagination"                 : "rest/items/get/shop_id/",
            "getItemDetailById"                    : "rest/items/get/id/",
            "getFollowShopsByUser"                 : "rest/shops/user_follows/user_id/",
            "getFeedsByShop"                       : "rest/shops/feeds/shop_id/",
            "getForgotPassword"                    : "rest/appusers/reset/email/",
            "getUserFavourites"                    : "rest/items/user_favourites/user_id/",
            "getUserTransactions"                  : "rest/transactions/user_transactions/user_id/",
            "postInquiry"                          : "rest/items/inquiry/id/",
            "postFavouriteData"                    : "rest/items/favourite/id/",
            "postIsFavourited"                     : "rest/items/is_favourite/id/",
            "postReviewData"                       : "rest/items/review/id/",
            "postRatingData"                       : "rest/items/rating/id/",
            "postIsRatedData"                      : "rest/items/is_rate/id/",
            "postContactUs"                        : "rest/shops/contactus/shop_id/",
            "postFollowShop"                       : "rest/shops/follow/shop_id/",
            "postIsFollowed"                       : "rest/shops/is_follow/shop_id/",
            "postLikeData"                         : "rest/items/like/id/",
            "postIsLiked"                          : "rest/items/is_like/id/",
            "postUserLogin"                        : "rest/appusers/login",
            "postUserRegister"                     : "rest/appusers/add/",
            "postIsUnLiked"                        : "rest/items/is_unlike/id/",
            "postTouchData"                        : "rest/items/touch/id/",
            "postImage"                            : "rest/images/upload/userId/",
            "postTransactionsData"                 : "rest/transactions/add/",
            "postItemSearch"                       : "rest/items/search/shop_id/",
            "putProfile"                           : "rest/appusers/update/id/"
        },
        "Languages" : {
            "appName"                               : "Bundles",
            "shops"                                 : " Shops",
            "selectedShop"                          : "Featured Shop",
            "lblSwitchShop"                         : "Populer Shop/explore/hot & new",
            "alreadyAddToCart"                      : "Item is already added in your cart. Thank You.",
            "deliveryAddressMissing"                : "Please fill for the shipping address.",
            "billingAddressMissing"                 : "Please fill for the billing address.",
            "emailMissing"                          : "Please fill for your email to receive order information.",
            "phoneMissing"                          : "Please fill for your phone no to contact if necessary.",
            "lblErrorMessage"                       : "Oops! Something is wrong when you make payment at Paypal.",
            "lblCancelMessage"                      : "You have been cancelled payment from Paypal.",
            "lblSuccessMessage"                     : "Your order has been sent to the shop. Please check your registered email for more detail.",
            "noItemsInsideBasket"                   : "There are no items in your cart.",
            "paypalCheckoutMessage"                 : "Please checkout with Paypal for your secure payment process. Thanks You.",
            "cleanSuccessBasket"                    : "Successfully Clean cart.",
            "lblFavourite"                          : "Favorite Bundles",
            "lblFollow"                             : "My Shops",
            "lblHome"                               : "Explore",
            "lblProfile"                            : "My Profile",
            "lblTransactionHistory"                 : "My Orders",
            "lbllogout"                             : "Logout",
            "lblCategoriesTitle"                    : "Please select a category",
            "lblSubCategoriesTitle"                 : "Please select a sub-category",
            "lblProducts"                           : "Products",
            "lblCategories"                         : "Categories",
            "lblFollowers"                          : "Followers",
            "lblVisitShop"                          : "Visit Shop",
            "lblFollowShop"                         : "Follow Shop",
            "lblCategory"                           : "Category :",
            "lblSubCategory"                        : "Sub Category :",
            "lblSearchKeyword"                      : "Search In Selected Category :",
            "btnAddToCart"                          : "Add To Cart",
            "btnSetAsFavourite"                     : "Favorite",
            "alreadyFavouritedItem"                 : "You've favorited the item.",
            "dataNotFound"                          : "Oops! Data not found from Server. Please try again later.",
            "itemNotFoundInSearch"                  : "Item not found in search.",
            "offlineMessage"                        : "Sorry, Please check your device internet connection.",
            "needForLoginMesssage"                  : "Oops! Please login to like item.",
            "needForLoginUnLikeMesssage"            : "Oops! Please login to like item.",
            "needForFavouriteMesssage"              : "Oops! Please login to favorite item.",
            "needForFollowMesssage"                 : "Oops! Please login to follow the shop.",
            "needForRatingMessage"                  : "Oops! Please login to rate the item.",
            "needForAddToCartMessage"               : "Oops! Please login for add to cart.",
            "alreadyLikeMessage"                    : "Sorry, you already liked for this item.",
            "alreadyRateMessage"                    : "Sorry, you already rated for this item.",
            "ReviewSubmitSuccessMessage"            : "Your review has been submitted. Thank You.",
            "inquirySuccessMessage"                 : "Your inquiry has been sent. Thank You.",
            "ratingSuccessMessage"                  : "Your rating has been submitted. Thank You.",
            "forgotPasswordMessage"                 : "Please check your email for next instruction. Thank You.",
            "cameraNotFound"                        : "Oops! Camera not found at your device.",
            "chooseImageOnly"                       : "Please choose image only.",
            "profileUpdateSuccessMessage"           : "Your profile has been updated. Thank You.",
            "passwordUpdateSuccessMessage"          : "Your password has been updated. Thank You.",
            "registerSuccessMessage"                : "Your registration has been completed. Thank You.",
            "followSuccessMessage"                  : "You've followed this shop.",
            "alreadyFavouriteMessage"               : "Sorry, you already favorited for this item.",
            "userAlreadyExist"                      : "User already exist in the system.",
            "somethingWrong"                        : "Oops! Something was wrong. Please try again.",
            "contactSuccessMessage"                 : "Your contact message has been sent. Thank You.",
            "updateCartSuccessMessage"              : "Successfully Updated",
            "btnSendInquiry"                        : "Send Inquiry",
            "lblWriteReview"                        : "Write Review",
            "lblEmail"                              : "Email",
            "lblPassword"                           : "Password",
            "btnLogin"                              : "Login",
            "btnRegister"                           : "Register",
            "btnForgot"                             : "Forgot Password?",
            "lblUserName"                           : "User Name",
            "btnRequest"                            : "Request",
            "lblReviewMessage"                      : "Your Review Message",
            "btnSubmit"                             : "Submit Review",
            "lblInquiryMessage"                     : "Your Inquiry Message",
            "lblYourName"                           : "Your Name",
            "lblProfilePhoto"                       : "Profile Photo",
            "lblBGPhoto"                            : "Background Photo",
            "EditInfo"                              : "Edit Info",
            "ChangePassword"                        : "Change Password",
            "Name"                                  : "Name",
            "AboutMe"                               : "About Me",
            "UpdateProfile"                         : "Update Profile",
            "NewPassword"                           : "New Password",
            "ConfirmPassword"                       : "Confirm Password",
            "UpdatePassword"                        : "Update Password",
            "LoginTitle"                            : "Please login to see your profile.",
            "RegisterTitle"                         : "Please register for account.",
            "EmailRegister"                         : "Email (To Login System)",
            "ForgotTitle"                           : "Please provide your registered email for next instruction.",
            "needForFavouriteListMesssage"          : "Oops! Please login to see your favorite.",
            "lblSearch"                             : "Search",
            "lblCancel"                             : "Cancel",
            "missingServer"                         : "Oops! App cannot connect to the server. Please make sure your server live url.",
            "wrongURL"                              : "Oops! Something wrong at API call.",
            "lblTransactionNo"                      : "Transaction No ",
            "lblTransactionDate"                    : "Transaction Date : ",
            "lblTotalItems"                         : "Total Bundles : ",
            "lblTotalAmount"                        : "Total Amount :",
            "lblItemName"                           : "Item Name : ",
            "lblPrice"                              : "Price : ",
            "lblQty"                                : "QTY : ",
            "lblSuccessMessageNoUserEmail"          : "Order has been submitted successfully into system but confrimation email could not send to Customer.",
            "lblSuccessMessageNoShopEmail"          : "Order has been submitted successfully into system but confrimation email could not send to Shop.",
            "lblSuccessMessageNoBothEmail"          : "Order has been submitted successfully into system but confrimation email could not send.",
            "facebookShareTitle"                    : "Panacea-soft",
            "facebookShareMessage"                  : "Build Your Busicess Using Bundles which is mobile commerce application which can setup and run your business on mobile platforms.",
            "facebookShareSuccess"                  : "Successfully shared on your Facebook.",
            "facebookShareImageURL"                 : "http://mokets2.successcomeup.com/userguide/assets/img/PreviewInline_Mokets.png",
            "facebookShareAppURL"                   : "http://mokets2.successcomeup.com/features-of-interest/index.html",
            "twitterShareMessage"                   : "Build Your Busicess Using Bundles #mokets #mobileapp #ios #android #codecanyon",
            "twitterShareImageURL"                  : "http://mokets2.successcomeup.com/userguide/assets/img/PreviewInline_Mokets.png",
            "twitterShareAppURL"                    : "http://mokets2.successcomeup.com/features-of-interest/index.html",
            "twitterShareSuccess"                   : "Successfully tweeted on your Twitter.",
            "lblDetailInformation"                  : "Product Details",
            "lblPriceDiscount"                      : "Price(Discounted)",
            "lblItemGot"                            : "Item got ",
            "lblMinusAmount"                        : "Minus Amount ",
            "lblUpdateToCart"                       : "Update To Cart",
            "lblChoose"                             : "Choose ",
            "lblSendInquiry"                        : "Send Inquiry",
            "hintTextInquiryMessage"                : "Inquiry Message",
            "hintTextYourName"                      : "Your Name",
            "hintTextEmail"                         : "Email",
            "lblThanksReview"                       : "Thanks for giving review",
            "lblGallery"                            : "Gallery",
            "hintTextReviewMessage"                 : "Review Message",
            "lblOf"                                 : " of ",
            "lblBasket"                             : "Cart",
            "lblQtyDivider"                         : " | QTY : ",
            "lblDivider"                            : " | ",
            "lblPaymentOption"                      : "Payment Option",
            "lblPaypal"                             : "Paypal",
            "lblPaypalMessage"                      : "You can checkhout using your paypal account.",
            "lblCod"                                : "Cash On Delivery",
            "lblCODMessage"                         : "You can checkout using Cash On Delivery Method.",
            "lblBt"                                 : "Back Transfer",
            "lblBTMessage"                          : "You can checkout using Bank Transfer Method.",
            "btnBtCheckout"                         : "Checkout With Bank Transfer",
            "btnCodCheckout"                        : "Checkout With Cash On Delivery",
            "btnPaypalCheckout"                     : "Checkout With Paypal",
            "lblCheckout"                           : "Checkout",
            "lblOrderSummary"                       : "Order Summary",
            "lblTotal"                              : "Total",
            "lblBankInfo"                           : "Bank Information",
            "lblBankInfoNote"                       : "Please take note about our business bank information.",
            "lblEmailAddress"                       : "Email (To Receive Order Confrimation)",
            "lblPhoneNo"                            : "Phone (To Contact If Necessary)",
            "lblDeliveryAddress"                    : "Shipping Address",
            "lblBillingAddress"                     : "Billing Address",
            "hintTextPhoneNo"                       : "Phone Number",
            "hintTextDeliveryAddress"               : "Shipping Address",
            "hintTextBillingAddress"                : "Billing Address",
            "btnConfirmCheckout"                    : "I'm Confirm For Checkout",
            "lblSubTotal"                           : "Sub Total",
            "lblQtyMultiply"                        : " x QTY : ",
            "lblPaymentSuccessful"                  : "Payment Successful",
            "btnOkay"                               : "Okay, Got it.",
            "lblTransStatus"                        : "Transaction Status : ",
            "lblItems"                              : "Bundles",
            "lblCategories"                         : "Categories",
            "lblFollowers"                          : "Followers",
            "hintTextAboutMe"                       : "About Me",
            "hintTextNewPassword"                   : "New Password",
            "hintTextConfirmPassword"               : "Confirm Password",
            "lblFeeds"                              : "Bundles",
            "lblFollowers"                          : "Followers",
            "lblFeedsList"                          : "Bundles List",
            "lblShopInformation"                    : "Shop Information",
            "lblAvailableItems"                     : "Available Bundles In ",
            "hintTextKeywordSearch"                 : "Keyword Search",
            "lblLogin"                              : "Login",
            "lblForgotPassword"                     : "Forgot Password",
            "lblRegister"                           : "Register",
            "lblPaymentCancel"                      : "Payment Cancelled",
            "lblPaymentError"                       : "Payment Error",
            "lblFeedDetail"                         : "Bundles Detail",
            "lblTransDetail"                        : "Transaction Detail",
            "noFeeds"                               : "There is no available bundles for selected shop."
        },
        "SocialKeys" : {
            "twitterConsumerKey"       : "IrrsKflA48H9neqV7H9PsOqIz",
            "twitterConsumerSecret"    : "JAOBNKBScXOjBNtp8rLraRbADy7gBeV9gZRgIRf7sDkxSH6nAG",
            "facebookAppKey"           : "275347342589588"
        },
        "Payment" : {
            "Paypal_Environment"     : "Paypal.PAYPAL_ENV_LIVE",
            "Paypal_AppID_LIVE"      : "AVAyzJWpkGKjBrf17IxfSnFivzFa0AMoqH2krs2iqPRN9kMW-DDuRe3j0x67IqKf9VjgsqXwEpBKL9Fz",
            "Paypal_Recipient_Email" : "badams451@gmail.com",
            "Paypal_Currency"        : "USD",
            "Pyapal_MerchantName"    : "Bundles",
            "Paypal_CustomerID"      : "BundlesCustomer",
            "Paypal_IpnUrl"          : "http://mokets2.successcomeup.com",
            "Paypal_Memo"            : "Payment for bundles order from Bundles App" 
        },
        "Payment_Option" : {
            "paypal"  : "on",
            "cod"     : "off",
            "bank"    : "off"
        }
        
    },
    "os:ios": {
        
    },
    "os:android": {
        
    },
    "env:development": {}, 
    "env:test": {}, 
    "env:production": {}, 
    "os:blackberry": {},
    "os:mobileweb": {},
    "dependencies": {
        "com.mcongrove.slideMenu": "1.0",
        "PSTabMenu": "1.0",
        "starrating": "1.0"
    }
}